{
    "KPlugin": {
        "Authors": [
            {
                "Email": "nolis71cu@gmail.com",
                "Name": "Manolo Valdes",
                "Name[ar]": "Manolo Valdes",
                "Name[bg]": "Manolo Valdes",
                "Name[ca@valencia]": "Manolo Valdes",
                "Name[ca]": "Manolo Valdes",
                "Name[de]": "Manolo Valdes",
                "Name[eo]": "Manolo Valdes",
                "Name[es]": "Manolo Valdes",
                "Name[eu]": "Manolo Valdes",
                "Name[fi]": "Manolo Valdes",
                "Name[fr]": "Manolo Valdes",
                "Name[gl]": "Manolo Valdes",
                "Name[he]": "מנולו ואלדס",
                "Name[ia]": "Manolo Valdes",
                "Name[it]": "Manolo Valdes",
                "Name[ka]": "Manolo Valdes",
                "Name[ko]": "Manolo Valdes",
                "Name[nl]": "Manolo Valdes",
                "Name[pl]": "Manolo Valdes",
                "Name[ru]": "Manolo Valdes",
                "Name[sl]": "Manolo Valdes",
                "Name[tr]": "Manolo Valdes",
                "Name[uk]": "Manolo Valdes",
                "Name[x-test]": "xxManolo Valdesxx",
                "Name[zh_CN]": "Manolo Valdes",
                "Name[zh_TW]": "Manolo Valdes"
            }
        ],
        "Category": "Service",
        "Description": "Allows files to be downloaded from Metalink",
        "Description[ar]": "تسمح بتنزيل الملفات من ميتالينك",
        "Description[bg]": "Позволява изтегляне на файлове през Metalink",
        "Description[ca@valencia]": "Permet baixar fitxers des d'un «Metalink»",
        "Description[ca]": "Permet baixar fitxers des d'un «Metalink»",
        "Description[de]": "Ermöglicht die Übertragung von Dateien mittels Metalink",
        "Description[eo]": "Permesas elŝuti dosierojn de Metalink",
        "Description[es]": "Permite la descarga de archivos de Metalink",
        "Description[eu]": "Fitxategiak meta-esteketatik zama-jaisteko aukera ematen du",
        "Description[fi]": "Sallii tiedostojen latauksen Metalinkistä",
        "Description[fr]": "Permet de télécharger des fichiers à partir de « Metalink »",
        "Description[gl]": "Permite descargar ficheiros de Metalink",
        "Description[he]": "מאפשר הורדת קבצים מקישור־על",
        "Description[ia]": "Il permitte a files de esser discargate ex Metalink",
        "Description[it]": "Consente di scaricare file da Metalink",
        "Description[ka]": "ფაილების მეტაბმულიდან გადმოწერის დაშვება",
        "Description[ko]": "메타링크에서 파일 다운로드하기",
        "Description[nl]": "Staat toe bestanden te downloaden met behulp van Metalink",
        "Description[pl]": "Pozwala pobierać pliki z Metalink",
        "Description[ru]": "Позволяет загружать файлы с Metalink",
        "Description[sl]": "Omogoča prenos datotek iz Metalinka",
        "Description[tr]": "Metalink'ten dosyaların indirilebilmesine olanak tanır",
        "Description[uk]": "Надає змогу отримувати файли з Metalink",
        "Description[x-test]": "xxAllows files to be downloaded from Metalinkxx",
        "Description[zh_CN]": "允许从元链接下载文件",
        "Description[zh_TW]": "允許從 Metalink 下載檔案",
        "EnabledByDefault": true,
        "Icon": "kget",
        "Id": "kget_metalink_plugin",
        "License": "GPL",
        "Name": "Metalink",
        "Name[ar]": "ميتالينك",
        "Name[bg]": "Metalink",
        "Name[bs]": "Metalink",
        "Name[ca@valencia]": "«Metalink»",
        "Name[ca]": "«Metalink»",
        "Name[cs]": "Metalink",
        "Name[da]": "Metalink",
        "Name[de]": "Metalink",
        "Name[el]": "Metalink",
        "Name[en_GB]": "Metalink",
        "Name[eo]": "Metaligo",
        "Name[es]": "Metalink",
        "Name[et]": "Metalink",
        "Name[eu]": "Metalink",
        "Name[fi]": "Meta-linkki",
        "Name[fr]": "Metalink",
        "Name[ga]": "Metalink",
        "Name[gl]": "Metalink",
        "Name[he]": "קישור־על",
        "Name[hne]": "मेटालिंक",
        "Name[hr]": "Meta-poveznica",
        "Name[hu]": "Metalink",
        "Name[ia]": "Metalink",
        "Name[id]": "Metalink",
        "Name[is]": "Metalink",
        "Name[it]": "Metalink",
        "Name[ja]": "メタリンク",
        "Name[ka]": "მეტაბმული",
        "Name[kk]": "Metalink",
        "Name[km]": "តំណ​មេតា",
        "Name[ko]": "메타링크",
        "Name[lt]": "Metalink",
        "Name[lv]": "Metalink",
        "Name[ml]": "സവിശേഷകണ്ണി",
        "Name[nb]": "Metalink",
        "Name[nds]": "Metalink",
        "Name[nl]": "Metalink",
        "Name[nn]": "MetaLink",
        "Name[pa]": "ਮੇਟਾਲਿੰਕ",
        "Name[pl]": "Metalink",
        "Name[pt]": "Metalink",
        "Name[pt_BR]": "Metalink",
        "Name[ro]": "Metalink",
        "Name[ru]": "Metalink",
        "Name[si]": "මෙටා සබැඳියක්",
        "Name[sk]": "Metalink",
        "Name[sl]": "Metalink",
        "Name[sr@ijekavian]": "Металинк",
        "Name[sr@ijekavianlatin]": "MetaLink",
        "Name[sr@latin]": "MetaLink",
        "Name[sr]": "Металинк",
        "Name[sv]": "Metalink",
        "Name[tr]": "Metalink",
        "Name[ug]": "مېتا ئۇلانما",
        "Name[uk]": "Metalink",
        "Name[x-test]": "xxMetalinkxx",
        "Name[zh_CN]": "元链接",
        "Name[zh_TW]": "Metalink",
        "ServiceTypes": [
            "KGet/Plugin"
        ],
        "Version": "1.0"
    },
    "X-KDE-ConfigModule": "kget_kcms/kcm_kget_metalinkfactory",
    "X-KDE-KGet-framework-version": "2",
    "X-KDE-KGet-plugintype": "TransferFactory",
    "X-KDE-KGet-rank": "110"
}
